# packages in environment at /home/moha/anaconda3/envs/ML:
#
# Name                    Version                   Build  Channel
_libgcc_mutex             0.1                        main  
bleach                    3.1.5                      py_0  
ca-certificates           2020.1.1                      0  
certifi                   2020.4.5.2               py38_0  
cycler                    0.10.0                   py38_0  
decorator                 4.4.2                      py_0  
defusedxml                0.6.0                      py_0  
entrypoints               0.3                      py38_0  
expat                     2.2.6                he6710b0_0  
freetype                  2.9.1                h8a8886c_1  
gst-plugins-base          1.14.0               hbbd80ab_1  
gstreamer                 1.14.0               hb31296c_0  
importlib-metadata        1.6.1                    py38_0  
importlib_metadata        1.6.1                         0  
intel-openmp              2020.1                      217  
ipykernel                 5.3.0            py38h5ca1d4c_0  
ipython_genutils          0.2.0                    py38_0  
ipywidgets                7.5.1                      py_0  
jedi                      0.17.0                   py38_0  
jpeg                      9b                   h024ee3a_2  
jsonschema                3.2.0                    py38_0  
jupyter                   1.0.0                    py38_7  
jupyter_client            6.1.3                      py_0  
jupyter_console           6.1.0                      py_0  
jupyter_core              4.6.3                    py38_0  
kiwisolver                1.2.0            py38hfd86e86_0  
libedit                   3.1.20181209         hc058e9b_0  
markupsafe                1.1.1            py38h7b6447c_0  
matplotlib-base           3.2.1            py38hef1b27d_0  
mistune                   0.8.4           py38h7b6447c_1000  
mkl-service               2.3.0            py38he904b0f_0  
nbconvert                 5.6.1                    py38_0  
ncurses                   6.2                  he6710b0_1  
notebook                  6.0.3                    py38_0  
numpy-base                1.18.1           py38hde5b4d6_1  
openssl                   1.1.1g               h7b6447c_0  
pandocfilters             1.4.2                    py38_1  
pcre                      8.43                 he6710b0_0  
pexpect                   4.8.0                    py38_0  
pickleshare               0.7.5                 py38_1000  
prometheus_client         0.8.0                      py_0  
ptyprocess                0.6.0                    py38_0  
pygments                  2.6.1                      py_0  
pyrsistent                0.16.0           py38h7b6447c_0  
python-dateutil           2.8.1                      py_0  
qtconsole                 4.7.4                      py_0  
readline                  8.0                  h7b6447c_0  
scikit-learn              0.22.1           py38hd81dba3_0  
send2trash                1.5.0                    py38_0  
setuptools                47.3.0                   py38_0  
sqlite                    3.31.1               h62c20be_1  
terminado                 0.8.3                    py38_0  
testpath                  0.4.4                      py_0  
traitlets                 4.3.3                    py38_0  
webencodings              0.5.1                    py38_1  
wheel                     0.34.2                   py38_0  
widgetsnbextension        3.5.1                    py38_0  
zeromq                    4.3.1                he6710b0_3  
